…
# Change for the duration of the session:
old <- options(
  pillar.sigfig = 6,
  pillar.print_max = 5,
  pillar.print_min = 5,
  pillar.advice = FALSE
)
df
#> # A tibble: 8 × 1
#>          x
#>      <dbl>
#> 1  1.23457
#> 2 NA      
#> 3  5      
#> 4  6      
#> 5  7      
#> # ℹ 3 more rows
…
